…
``` r
uniprot_amps %>%
  group_by(Order) %>% 
  summarise(AMP_count = n()) %>%
  arrange(.by_group = TRUE, desc(AMP_count)) 
```

    ## # A tibble: 236 x 2
    ##    Order        AMP_count
    ##    <chr>            <int>
    ##  1 Bacteria         18776
    ##  2 Anura             1703
    ##  3 Primates          1618
    ##  4 Brassicales       1329
    ##  5 Artiodactyla      1166
    ##  6 Diptera            855
    ##  7 Carnivora          749
    ##  8 Rodentia           665
    ##  9 Fabales            454
    ## 10 Malvales           432
    ## # … with 226 more rows
…
