…
Add in the unreviewed horseshoe bat AMPs (used in previous analysis)

Read in the tree from [TimeTree](http://timetree.org/)

Normalise names: 211 organisms had unresolved names of which 76 (mostly
bacteria) were replaced with different names and the remaining 135
organisms potentially were not in the TimeTree database at the time.

After renaming the majority of species in the tree to match to the
species names used in SwissProt, 456 AMP entries remained in SwissProt
where the species could not be found in the TimeTree database. These
mostly includes arachnids (scorpions and spiders), hymenopterans (wasps,
bees, ants and sawflies) and anurans (frogs).

    ## # A tibble: 37 × 2
    ##    `Taxonomic lineage (ORDER)`             n
    ##    <chr>                               <int>
    ##  1 Scorpiones                             98
    ##  2 Hymenoptera                            93
    ##  3 Anura                                  67
    ##  4 Araneae (spiders)                      67
    ##  5 Lepidoptera (butterflies and moths)    15
    ##  6 Coleoptera                             13
    ##  7 Stolidobranchia                        13
    ##  8 Lactobacillales                        10
    ##  9 Fabales                                 9
    ## 10 Poales                                  9
    ## # … with 27 more rows
…
