…
AMPs_notintreelabel <- amp_database[!amp_database$Organism %in% timetree_tibble$label,]
```

After renaming the majority of species in the tree to match to the
species names used in the AMP database, 472 AMP entries corresponding to
140 organisms remained in SwissProt where the species could not be found
in the TimeTree database. These mostly includes arachnids (scorpions and
spiders), hymenopterans (wasps, bees, ants and sawflies) and anurans
(frogs).

``` r
AMPs_notintreelabel %>% count(Order, sort = TRUE)
```

    ## # A tibble: 37 × 2
    ##    Order               n
    ##    <chr>           <int>
    ##  1 Scorpiones         98
    ##  2 Hymenoptera        91
    ##  3 Anura              83
    ##  4 Araneae            67
    ##  5 Lepidoptera        15
    ##  6 Coleoptera         13
    ##  7 Stolidobranchia    13
    ##  8 Lactobacillales    11
    ##  9 Fabales             9
    ## 10 Poales              9
    ## # … with 27 more rows
…
